Exploratory Data Analysis of Incident Level Shooting Data in New York City - 3 Results
…
Code

date_counts <- filtered_data %>%
  group_by(OCCUR_DATE) %>%
  summarize(Count = n())

# Print the counts
print(date_counts)

# A tibble: 31 × 2
   OCCUR_DATE Count
   <date>     <int>
 1 2020-07-01     1
 2 2020-07-02     8
 3 2020-07-03     4
 4 2020-07-04     3
 5 2020-07-05    16
 6 2020-07-06     4
 7 2020-07-07    14
 8 2020-07-08     4
 9 2020-07-09     5
10 2020-07-10     3
# ℹ 21 more rows
…
